{
  "stats": {
    "suites": 2,
    "tests": 3,
    "passes": 3,
    "pending": 0,
    "failures": 0,
    "start": "2023-03-02T13:55:14.129Z",
    "end": "2023-03-02T13:55:14.155Z",
    "duration": 26,
    "testsRegistered": 3,
    "passPercent": 100,
    "pendingPercent": 0,
    "other": 0,
    "hasOther": false,
    "skipped": 0,
    "hasSkipped": false
  },
  "results": [
    {
      "uuid": "47567127-8765-4e05-b320-ee750ac340e5",
      "title": "",
      "fullFile": "",
      "file": "",
      "beforeHooks": [],
      "afterHooks": [],
      "tests": [],
      "suites": [
        {
          "uuid": "6812be5a-b5c8-47ab-b96b-8846aa2efa83",
          "title": "default",
          "fullFile": "/Users/pellemark/Documents/LevorSystem/testci/testci/default_test.js",
          "file": "/default_test.js",
          "beforeHooks": [
            {
              "title": "\"before all\" hook: codeceptjs.beforeSuite in \"default\"",
              "fullTitle": "default \"before all\" hook: codeceptjs.beforeSuite in \"default\"",
              "timedOut": false,
              "duration": 1,
              "state": null,
              "speed": null,
              "pass": false,
              "fail": false,
              "pending": false,
              "context": null,
              "code": "scenario.suiteSetup(suite)",
              "err": {},
              "uuid": "7b2d600b-d669-45a5-ba00-e3db887b6b71",
              "parentUUID": "6812be5a-b5c8-47ab-b96b-8846aa2efa83",
              "isHook": true,
              "skipped": false
            },
            {
              "title": "\"before each\" hook: codeceptjs.before in \"default\"",
              "fullTitle": "default \"before each\" hook: codeceptjs.before in \"default\"",
              "timedOut": false,
              "duration": 9,
              "state": null,
              "speed": null,
              "pass": false,
              "fail": false,
              "pending": false,
              "context": null,
              "code": "scenario.setup(suite)",
              "err": {},
              "uuid": "7bcfd9ad-87f1-4338-84ea-1da910e8f32c",
              "parentUUID": "6812be5a-b5c8-47ab-b96b-8846aa2efa83",
              "isHook": true,
              "skipped": false
            }
          ],
          "afterHooks": [
            {
              "title": "\"after all\" hook: codeceptjs.afterSuite in \"default\"",
              "fullTitle": "default \"after all\" hook: codeceptjs.afterSuite in \"default\"",
              "timedOut": false,
              "duration": 0,
              "state": null,
              "speed": null,
              "pass": false,
              "fail": false,
              "pending": false,
              "context": null,
              "code": "scenario.suiteTeardown(suite)",
              "err": {},
              "uuid": "9498de19-bffd-4c9e-a032-0f8af4c2bba8",
              "parentUUID": "6812be5a-b5c8-47ab-b96b-8846aa2efa83",
              "isHook": true,
              "skipped": false
            },
            {
              "title": "\"after each\" hook: finalize codeceptjs in \"default\"",
              "fullTitle": "default \"after each\" hook: finalize codeceptjs in \"default\"",
              "timedOut": false,
              "duration": 1,
              "state": null,
              "speed": null,
              "pass": false,
              "fail": false,
              "pending": false,
              "context": null,
              "code": "scenario.teardown(suite)",
              "err": {},
              "uuid": "15ee3469-74ca-4f7e-9b69-01ee846986d8",
              "parentUUID": "6812be5a-b5c8-47ab-b96b-8846aa2efa83",
              "isHook": true,
              "skipped": false
            }
          ],
          "tests": [
            {
              "title": "test something",
              "fullTitle": "default: test something",
              "timedOut": false,
              "duration": 4,
              "state": "passed",
              "speed": "fast",
              "pass": true,
              "fail": false,
              "pending": false,
              "context": null,
              "code": "I }) => {",
              "err": {},
              "uuid": "a3df76bf-3a7b-4bc9-8ea6-398d3f593255",
              "parentUUID": "6812be5a-b5c8-47ab-b96b-8846aa2efa83",
              "isHook": false,
              "skipped": false
            }
          ],
          "suites": [],
          "passes": [
            "a3df76bf-3a7b-4bc9-8ea6-398d3f593255"
          ],
          "failures": [],
          "pending": [],
          "skipped": [],
          "duration": 4,
          "root": false,
          "rootEmpty": false,
          "_timeout": 0
        },
        {
          "uuid": "b1f10e5c-37e8-4379-a494-53d4c2073cac",
          "title": "AssetManager",
          "fullFile": "/Users/pellemark/Documents/LevorSystem/testci/testci/valami_test.js",
          "file": "/valami_test.js",
          "beforeHooks": [
            {
              "title": "\"before all\" hook: codeceptjs.beforeSuite in \"AssetManager\"",
              "fullTitle": "AssetManager \"before all\" hook: codeceptjs.beforeSuite in \"AssetManager\"",
              "timedOut": false,
              "duration": 0,
              "state": null,
              "speed": null,
              "pass": false,
              "fail": false,
              "pending": false,
              "context": null,
              "code": "scenario.suiteSetup(suite)",
              "err": {},
              "uuid": "fd146d9e-902d-40a1-be11-7a0a32209b03",
              "parentUUID": "b1f10e5c-37e8-4379-a494-53d4c2073cac",
              "isHook": true,
              "skipped": false
            },
            {
              "title": "\"before each\" hook: codeceptjs.before in \"AssetManager\"",
              "fullTitle": "AssetManager \"before each\" hook: codeceptjs.before in \"AssetManager\"",
              "timedOut": false,
              "duration": 3,
              "state": null,
              "speed": null,
              "pass": false,
              "fail": false,
              "pending": false,
              "context": null,
              "code": "scenario.setup(suite)",
              "err": {},
              "uuid": "027eef22-2f5d-42e3-9a8d-de26d7aaa482",
              "parentUUID": "b1f10e5c-37e8-4379-a494-53d4c2073cac",
              "isHook": true,
              "skipped": false
            }
          ],
          "afterHooks": [
            {
              "title": "\"after all\" hook: codeceptjs.afterSuite in \"AssetManager\"",
              "fullTitle": "AssetManager \"after all\" hook: codeceptjs.afterSuite in \"AssetManager\"",
              "timedOut": false,
              "duration": 0,
              "state": null,
              "speed": null,
              "pass": false,
              "fail": false,
              "pending": false,
              "context": null,
              "code": "scenario.suiteTeardown(suite)",
              "err": {},
              "uuid": "abace786-33dd-4884-9f21-99b78f3b9f9d",
              "parentUUID": "b1f10e5c-37e8-4379-a494-53d4c2073cac",
              "isHook": true,
              "skipped": false
            },
            {
              "title": "\"after each\" hook: finalize codeceptjs in \"AssetManager\"",
              "fullTitle": "AssetManager \"after each\" hook: finalize codeceptjs in \"AssetManager\"",
              "timedOut": false,
              "duration": 0,
              "state": null,
              "speed": null,
              "pass": false,
              "fail": false,
              "pending": false,
              "context": null,
              "code": "scenario.teardown(suite)",
              "err": {},
              "uuid": "4f7e63a9-9032-4793-af1e-662c1bf16398",
              "parentUUID": "b1f10e5c-37e8-4379-a494-53d4c2073cac",
              "isHook": true,
              "skipped": false
            }
          ],
          "tests": [
            {
              "title": "test something",
              "fullTitle": "AssetManager: test something",
              "timedOut": false,
              "duration": 1,
              "state": "passed",
              "speed": "fast",
              "pass": true,
              "fail": false,
              "pending": false,
              "context": null,
              "code": "I }) => {",
              "err": {},
              "uuid": "f93c40f3-2705-4c69-a0a3-e67a7c7f034d",
              "parentUUID": "b1f10e5c-37e8-4379-a494-53d4c2073cac",
              "isHook": false,
              "skipped": false
            },
            {
              "title": "test something2",
              "fullTitle": "AssetManager: test something2",
              "timedOut": false,
              "duration": 0,
              "state": "passed",
              "speed": "fast",
              "pass": true,
              "fail": false,
              "pending": false,
              "context": null,
              "code": "I }) => {",
              "err": {},
              "uuid": "de30933f-69d5-49fb-8341-85833ab07123",
              "parentUUID": "b1f10e5c-37e8-4379-a494-53d4c2073cac",
              "isHook": false,
              "skipped": false
            }
          ],
          "suites": [],
          "passes": [
            "f93c40f3-2705-4c69-a0a3-e67a7c7f034d",
            "de30933f-69d5-49fb-8341-85833ab07123"
          ],
          "failures": [],
          "pending": [],
          "skipped": [],
          "duration": 1,
          "root": false,
          "rootEmpty": false,
          "_timeout": 0
        }
      ],
      "passes": [],
      "failures": [],
      "pending": [],
      "skipped": [],
      "duration": 0,
      "root": true,
      "rootEmpty": true,
      "_timeout": 0
    }
  ],
  "meta": {
    "mocha": {
      "version": "10.2.0"
    },
    "mochawesome": {
      "options": {
        "quiet": false,
        "reportFilename": "report.html",
        "saveHtml": true,
        "saveJson": true,
        "consoleReporter": "spec",
        "useInlineDiffs": false,
        "code": true
      },
      "version": "7.1.3"
    },
    "marge": {
      "options": {
        "reportDir": "output",
        "reportFilename": "report.html"
      },
      "version": "6.2.0"
    }
  }
}